%!PS-Adobe-3.0 EPSF-3.0
%%Creator: cairo 1.15.12 (http://cairographics.org)
%%CreationDate: Thu Sep  6 16:25:10 2018
%%Pages: 1
%%DocumentData: Clean7Bit
%%LanguageLevel: 2
%%BoundingBox: 0 0 82 131
%%EndComments
%%BeginProlog
50 dict begin
/q { gsave } bind def
/Q { grestore } bind def
/cm { 6 array astore concat } bind def
/w { setlinewidth } bind def
/J { setlinecap } bind def
/j { setlinejoin } bind def
/M { setmiterlimit } bind def
/d { setdash } bind def
/m { moveto } bind def
/l { lineto } bind def
/c { curveto } bind def
/h { closepath } bind def
/re { exch dup neg 3 1 roll 5 3 roll moveto 0 rlineto
      0 exch rlineto 0 rlineto closepath } bind def
/S { stroke } bind def
/f { fill } bind def
/f* { eofill } bind def
/n { newpath } bind def
/W { clip } bind def
/W* { eoclip } bind def
/BT { } bind def
/ET { } bind def
/BDC { mark 3 1 roll /BDC pdfmark } bind def
/EMC { mark /EMC pdfmark } bind def
/cairo_store_point { /cairo_point_y exch def /cairo_point_x exch def } def
/Tj { show currentpoint cairo_store_point } bind def
/TJ {
  {
    dup
    type /stringtype eq
    { show } { -0.001 mul 0 cairo_font_matrix dtransform rmoveto } ifelse
  } forall
  currentpoint cairo_store_point
} bind def
/cairo_selectfont { cairo_font_matrix aload pop pop pop 0 0 6 array astore
    cairo_font exch selectfont cairo_point_x cairo_point_y moveto } bind def
/Tf { pop /cairo_font exch def /cairo_font_matrix where
      { pop cairo_selectfont } if } bind def
/Td { matrix translate cairo_font_matrix matrix concatmatrix dup
      /cairo_font_matrix exch def dup 4 get exch 5 get cairo_store_point
      /cairo_font where { pop cairo_selectfont } if } bind def
/Tm { 2 copy 8 2 roll 6 array astore /cairo_font_matrix exch def
      cairo_store_point /cairo_font where { pop cairo_selectfont } if } bind def
/g { setgray } bind def
/rg { setrgbcolor } bind def
/d1 { setcachedevice } bind def
/cairo_data_source {
  CairoDataIndex CairoData length lt
    { CairoData CairoDataIndex get /CairoDataIndex CairoDataIndex 1 add def }
    { () } ifelse
} def
/cairo_flush_ascii85_file { cairo_ascii85_file status { cairo_ascii85_file flushfile } if } def
/cairo_image { image cairo_flush_ascii85_file } def
/cairo_imagemask { imagemask cairo_flush_ascii85_file } def
%%EndProlog
%%BeginSetup
%%EndSetup
%%Page: 1 1
%%BeginPageSetup
%%PageBoundingBox: 0 0 82 131
%%EndPageSetup
q 0 0 82 131 rectclip
1 0 0 -1 0 131 cm q
0.843137 0.027451 0.317647 rg
41.105 42.203 m 39.984 42.219 41.316 42.777 42.781 43.004 c 43.188 42.688
 43.551 42.371 43.879 42.059 c 42.969 42.281 42.043 42.289 41.105 42.203
 c f
47.121 40.703 m 47.789 39.781 48.273 38.773 48.445 37.73 c 48.297 38.473
 47.895 39.113 47.516 39.793 c 45.418 41.113 47.316 39.012 47.512 38.211
 c 45.262 41.047 47.203 39.91 47.121 40.703 c f
49.34 34.926 m 49.477 32.906 48.945 33.547 48.766 34.316 c 48.973 34.426
 49.141 35.738 49.34 34.926 c f
56.703 35.691 m 56.77 37.504 56.172 38.383 55.633 39.941 c 54.664 40.422
 l 53.871 41.965 54.742 41.402 54.176 42.625 c 52.938 43.727 50.422 46.066
 49.613 46.281 c 49.027 46.27 50.012 45.586 50.141 45.32 c 48.484 46.461
 48.812 47.027 46.277 47.723 c 46.203 47.555 l 39.957 50.496 31.277 44.672
 31.391 36.723 c 31.324 37.227 31.203 37.102 31.062 37.305 c 30.742 33.215
 32.953 29.109 36.68 27.43 c 40.328 25.625 44.605 26.363 47.215 28.801 c
 45.781 26.922 42.926 24.93 39.539 25.113 c 36.223 25.168 33.121 27.273 
32.086 29.562 c 30.387 30.633 30.191 33.684 29.449 34.242 c 28.453 41.562
 31.324 44.727 36.18 48.445 c 36.941 48.961 36.395 49.039 36.496 49.43 c
 34.883 48.676 33.406 47.535 32.191 46.141 c 32.836 47.082 33.531 48 34.434
 48.719 c 32.91 48.207 30.879 45.035 30.285 44.906 c 32.906 49.598 40.922
 53.137 45.117 51.383 c 43.176 51.453 40.707 51.422 38.527 50.613 c 37.609
 50.145 36.363 49.168 36.586 48.984 c 42.312 51.125 48.23 50.602 53.184 
46.633 c 54.445 45.648 55.82 43.98 56.219 43.957 c 55.621 44.859 56.324 
44.391 55.863 45.188 c 57.117 43.16 55.316 44.359 57.16 41.688 c 57.84 42.625
 l 57.586 40.941 59.93 38.902 59.691 36.242 c 60.23 35.43 60.289 37.117 
59.719 38.988 c 60.512 36.914 59.93 36.578 60.133 34.867 c 60.352 35.441
 60.641 36.055 60.789 36.664 c 60.273 34.656 61.316 33.285 61.574 32.117
 c 61.32 32.008 60.777 33.004 60.656 30.637 c 60.672 29.605 60.941 30.098
 61.043 29.844 c 60.844 29.727 60.312 28.938 59.992 27.426 c 60.223 27.066
 60.617 28.348 60.934 28.398 c 60.73 27.195 60.379 26.277 60.363 25.355 
c 59.434 23.414 60.031 25.613 59.281 24.523 c 58.289 21.438 60.102 23.805
 60.223 22.406 c 61.723 24.578 62.578 27.945 62.969 29.336 c 62.672 27.637
 62.188 25.988 61.594 24.395 c 62.051 24.59 60.859 20.898 62.188 23.344 
c 60.77 18.133 56.129 13.266 51.859 10.984 c 52.379 11.461 53.039 12.062
 52.805 12.156 c 50.676 10.891 51.051 10.793 50.746 10.258 c 49.02 9.555
 48.902 10.316 47.758 10.258 c 44.496 8.527 43.867 8.711 40.867 7.629 c 
41 8.27 l 38.84 7.547 38.484 8.539 36.148 8.27 c 36.008 8.16 36.898 7.867
 37.633 7.762 c 35.539 8.039 35.641 7.348 33.594 7.84 c 34.098 7.484 34.633
 7.25 35.168 6.949 c 33.465 7.055 31.102 7.941 31.832 7.133 c 29.051 8.371
 24.117 10.113 21.348 12.711 c 21.262 12.129 l 19.992 13.652 15.723 16.68
 15.387 18.652 c 15.047 18.73 l 14.387 19.848 13.957 21.117 13.434 22.266
 c 12.574 23.738 12.168 22.832 12.293 23.062 c 10.594 26.508 9.75 29.402
 9.02 31.777 c 9.539 32.551 9.031 36.449 9.23 39.57 c 8.375 54.977 20.043
 69.938 32.793 73.391 c 34.664 74.059 37.441 74.035 39.805 74.102 c 37.016
 73.305 36.656 73.68 33.941 72.73 c 31.98 71.809 31.551 70.754 30.16 69.547
 c 30.711 70.52 l 27.988 69.555 29.129 69.328 26.914 68.625 c 27.5 67.859
 l 26.617 67.793 25.164 66.375 24.766 65.586 c 23.801 65.625 l 22.641 64.195
 22.02 63.16 22.066 62.359 c 21.754 62.918 l 21.402 62.312 17.488 57.551
 19.516 58.656 c 19.141 58.312 18.637 58.098 18.094 57.109 c 18.508 56.637
 l 17.531 55.379 16.711 53.766 16.773 53.23 c 17.293 53.934 17.656 54.066
 18.016 54.188 c 15.547 48.062 15.406 53.848 13.539 47.953 c 13.934 47.922
 l 13.629 47.465 13.445 46.969 13.203 46.484 c 13.375 44.77 l 11.598 42.719
 12.879 36.035 13.137 32.371 c 13.312 30.883 14.617 29.297 15.609 26.809
 c 15.004 26.703 l 16.164 24.688 21.609 18.605 24.129 18.918 c 25.352 17.383
 23.887 18.91 23.648 18.523 c 26.332 15.75 27.176 16.562 28.988 16.062 c
 30.941 14.906 27.312 16.516 28.234 15.621 c 31.613 14.762 30.629 13.66 
35.035 13.223 c 35.496 13.488 33.953 13.633 33.57 13.977 c 36.383 12.598
 42.469 12.91 46.426 14.738 c 51.016 16.883 56.172 23.223 56.375 29.188 
c 56.609 29.25 l 56.492 31.621 56.973 34.363 56.137 36.883 c 56.703 35.691
 l f
0.941176 0.505882 0.0980392 rg
26.461 38.41 m 26.395 36.598 26.992 35.719 27.531 34.16 c 28.5 33.68 l 
29.293 32.137 28.422 32.699 28.988 31.473 c 30.227 30.375 32.742 28.031 
33.547 27.816 c 34.137 27.832 33.148 28.512 33.02 28.777 c 34.68 27.641 
34.352 27.07 36.887 26.379 c 36.957 26.547 l 43.207 23.605 51.887 29.43 
51.773 37.379 c 51.84 36.875 51.961 37 52.098 36.797 c 52.422 40.887 50.211
 44.992 46.48 46.672 c 42.836 48.477 38.559 47.734 35.949 45.301 c 37.383
 47.18 40.238 49.172 43.621 48.988 c 46.938 48.934 50.043 46.828 51.078 
44.539 c 52.773 43.469 52.973 40.414 53.711 39.855 c 54.711 32.535 51.84
 29.375 46.984 25.656 c 46.223 25.141 46.77 25.062 46.668 24.672 c 48.281
 25.426 49.758 26.562 50.973 27.961 c 50.328 27.016 49.629 26.102 48.73 
25.383 c 50.254 25.895 52.285 29.066 52.875 29.195 c 50.258 24.5 42.242 
20.965 38.047 22.719 c 39.988 22.648 42.453 22.68 44.637 23.484 c 45.555
 23.957 46.801 24.934 46.578 25.117 c 40.848 22.977 34.934 23.496 29.98 
27.469 c 28.719 28.453 27.34 30.121 26.941 30.145 c 27.543 29.242 26.84 
29.711 27.301 28.914 c 26.047 30.941 27.848 29.738 26.004 32.41 c 25.32 
31.473 l 25.578 33.156 23.234 35.199 23.473 37.859 c 22.934 38.672 22.871
 36.984 23.441 35.113 c 22.652 37.188 23.234 37.523 23.031 39.234 c 22.812
 38.656 22.523 38.047 22.375 37.438 c 22.891 39.445 21.848 40.816 21.59 
41.98 c 21.844 42.094 22.383 41.094 22.508 43.465 c 22.488 44.492 22.223
 44.004 22.117 44.258 c 22.32 44.375 22.848 45.164 23.172 46.676 c 22.941
 47.031 22.547 45.754 22.23 45.703 c 22.434 46.906 22.785 47.82 22.801 48.746
 c 23.73 50.688 23.129 48.484 23.883 49.578 c 24.871 52.664 23.062 50.297
 22.941 51.695 c 21.441 49.523 20.586 46.156 20.191 44.762 c 20.492 46.465
 20.977 48.113 21.57 49.707 c 21.113 49.512 22.305 53.203 20.977 50.758 
c 22.391 55.969 27.035 60.836 31.305 63.117 c 30.785 62.641 30.125 62.039
 30.359 61.945 c 32.484 63.211 32.113 63.309 32.418 63.844 c 34.145 64.547
 34.262 63.785 35.406 63.84 c 38.668 65.574 39.297 65.387 42.297 66.473 
c 42.16 65.832 l 44.32 66.555 44.68 65.562 47.016 65.832 c 47.156 65.941
 46.266 66.234 45.531 66.34 c 47.621 66.062 47.523 66.754 49.57 66.266 c
 49.066 66.617 48.531 66.852 47.992 67.152 c 49.695 67.047 52.062 66.16 
51.332 66.969 c 54.109 65.727 59.047 63.988 61.816 61.391 c 61.902 61.973
 l 63.172 60.449 67.438 57.422 67.777 55.449 c 68.117 55.367 l 68.777 54.25
 69.203 52.984 69.727 51.836 c 70.59 50.363 70.996 51.266 70.871 51.035 
c 72.57 47.594 73.414 44.699 74.145 42.324 c 73.625 41.547 74.129 37.652
 73.934 34.531 c 74.785 19.125 63.121 4.164 50.371 0.711 c 48.5 0.043 45.723
 0.066 43.355 0 c 46.145 0.797 46.508 0.422 49.223 1.371 c 51.184 2.293 
51.613 3.348 53 4.551 c 52.453 3.582 l 55.176 4.547 54.035 4.773 56.25 5.477
 c 55.664 6.242 l 56.547 6.309 58 7.727 58.398 8.516 c 59.363 8.477 l 60.523
 9.906 61.141 10.941 61.098 11.738 c 61.41 11.184 l 61.762 11.789 65.676
 16.551 63.645 15.441 c 64.023 15.785 64.523 16.004 65.066 16.992 c 64.656
 17.465 l 65.629 18.723 66.453 20.332 66.391 20.871 c 65.867 20.168 65.508
 20.035 65.148 19.914 c 67.617 26.039 67.754 20.25 69.625 26.148 c 69.23
 26.18 l 69.531 26.637 69.719 27.133 69.961 27.617 c 69.789 29.332 l 71.566
 31.383 70.285 38.066 70.027 41.73 c 69.852 43.219 68.543 44.805 67.551 
47.293 c 68.156 47.398 l 67.004 49.414 61.559 55.496 59.035 55.184 c 57.816
 56.719 59.281 55.191 59.52 55.574 c 56.836 58.352 55.992 57.535 54.18 58.035
 c 52.227 59.195 55.855 57.582 54.93 58.477 c 51.555 59.34 52.539 60.438
 48.133 60.875 c 47.668 60.609 49.211 60.469 49.598 60.125 c 46.785 61.504
 40.695 61.188 36.738 59.363 c 32.152 57.215 26.992 50.875 26.789 44.91 
c 26.559 44.848 l 26.676 42.477 26.195 39.734 27.027 37.215 c 26.461 38.41
 l f
0.843137 0.027451 0.317647 rg
28.875 43.742 m 28.715 44.527 l 29.453 45.527 30.035 46.613 30.977 47.391
 c 30.301 46.074 29.797 45.527 28.875 43.742 c f
30.613 43.672 m 30.223 43.242 29.992 42.723 29.734 42.207 c 29.98 43.113
 30.488 43.895 30.961 44.691 c 30.613 43.672 l f
61.426 36.977 m 61.262 37.391 l 60.961 39.535 60.309 41.656 59.309 43.621
 c 60.414 41.547 61.125 39.277 61.426 36.977 c f
0 g
10.078 100.598 m 10.043 100.633 10.043 106.227 9.973 107.688 c 9.906 108.871
 9.801 111.406 7.297 111.406 c 4.727 111.406 4.102 108.453 3.891 107.168
 c 3.648 105.742 3.648 104.559 3.648 104.039 c 3.648 102.371 3.754 97.715
 7.68 97.715 c 8.863 97.715 9.523 98.062 10.043 98.34 c h
0 104.699 m 0 114.5 5.215 114.5 5.977 114.5 c 8.133 114.5 9.523 113.316
 10.113 111.27 c 10.184 114.359 l 10.844 114.324 11.504 114.254 12.582 114.254
 c 12.965 114.254 13.273 114.254 13.555 114.289 c 13.832 114.289 14.109 
114.324 14.422 114.359 c 13.867 113.25 13.449 110.746 13.449 105.324 c 13.449
 100.043 13.449 91.113 13.902 88.398 c 12.652 88.992 11.574 89.375 9.211
 89.582 c 10.148 90.59 10.148 91.113 10.148 95.699 c 9.488 95.488 8.652 
95.246 7.227 95.246 c 1.008 95.246 0 100.668 0 104.699 c f
18.848 102.926 m 18.883 100.043 19.473 97.469 21.941 97.469 c 24.652 97.469
 24.859 100.457 24.789 102.926 c h
28.23 103.273 m 28.23 99.207 27.43 95.211 22.289 95.211 c 15.199 95.211
 15.199 103.066 15.199 104.734 c 15.199 111.789 18.359 114.57 23.68 114.57
 c 26.039 114.57 27.188 114.223 27.812 114.047 c 27.781 112.797 27.953 111.996
 28.164 110.918 c 27.43 111.371 26.492 111.965 24.406 111.965 c 18.984 111.965
 18.918 107.027 18.918 105.324 c 28.16 105.324 l 28.23 103.273 l f
39.535 104.77 m 39.535 108 38.945 112.344 34.914 112.344 c 34.359 112.344
 33.664 112.238 33.211 112.137 c 33.141 110.883 33.141 108.73 33.141 106.227
 c 33.141 103.238 33.453 101.676 33.699 100.91 c 34.43 98.445 36.062 98.41
 36.371 98.41 c 39.016 98.41 39.535 102.059 39.535 104.77 c h
29.562 108.555 m 29.562 111.129 29.562 112.586 29.145 113.699 c 30.57 114.254
 32.344 114.566 34.465 114.566 c 35.82 114.566 39.746 114.566 41.863 110.223
 c 42.871 108.211 43.219 105.496 43.219 103.445 c 43.219 102.195 43.082 
99.449 42.074 97.711 c 41.102 96.082 39.535 95.246 37.871 95.246 c 34.531
 95.246 33.559 98.027 33.039 99.449 c 33.039 97.68 33.074 91.492 33.352 
88.328 c 31.094 89.371 29.699 89.547 28.207 89.684 c 29.562 90.238 29.562
 92.535 29.562 100.008 c 29.562 108.555 l f
49.902 114.359 m 49.207 114.254 48.719 114.188 47.711 114.188 c 46.602 
114.188 45.832 114.258 45.035 114.359 c 45.383 113.699 45.52 113.387 45.625
 111.129 c 45.766 108.035 45.801 99.762 45.555 98.027 c 45.383 96.703 45.07
 96.496 44.582 96.148 c 47.434 95.871 48.234 95.664 49.551 95.039 c 49.277
 96.566 49.238 97.332 49.238 99.66 c 49.172 111.648 49.137 112.934 49.902
 114.359 c f
61.031 104.523 m 60.961 106.715 60.926 108.242 60.332 109.461 c 59.605 
111.023 58.387 111.477 57.484 111.477 c 55.398 111.477 54.945 109.738 54.945
 108.035 c 54.945 104.77 57.867 104.523 59.188 104.523 c h
51.473 108.801 m 51.473 110.988 52.133 113.18 54.078 114.117 c 54.949 114.5
 55.816 114.5 56.094 114.5 c 59.293 114.5 60.371 112.137 61.031 110.676 
c 60.996 112.207 61.031 113.145 61.133 114.359 c 61.762 114.324 62.387 114.254
 63.43 114.254 c 64.02 114.254 64.574 114.324 65.164 114.359 c 64.785 113.77
 64.574 113.422 64.469 112.066 c 64.402 110.746 64.402 109.426 64.402 107.582
 c 64.438 100.492 l 64.438 97.852 63.742 95.246 58.527 95.246 c 55.086 95.246
 53.07 96.289 52.062 96.809 c 52.48 97.574 52.828 98.234 53.141 99.73 c 
54.496 98.547 56.27 97.922 58.078 97.922 c 60.961 97.922 60.961 99.836 60.961
 102.543 c 60.301 102.512 59.746 102.441 58.805 102.441 c 54.391 102.441
 51.473 104.141 51.473 108.801 c f
81.047 110.918 m 81.082 112.102 81.082 113.352 81.57 114.359 c 80.805 114.289
 80.352 114.188 78.93 114.188 c 78.094 114.188 77.641 114.258 76.98 114.359
 c 77.117 113.91 77.191 113.734 77.258 113.145 c 77.363 112.344 77.434 109.668
 77.434 108.73 c 77.434 104.977 l 77.434 103.344 77.434 100.98 77.328 100.145
 c 77.258 99.555 77.086 97.957 75.066 97.957 c 73.086 97.957 72.426 99.418
 72.184 100.598 c 71.906 101.812 71.906 103.133 71.906 108.277 c 71.941 
112.727 71.941 113.145 72.289 114.359 c 71.699 114.289 70.969 114.223 69.926
 114.223 c 69.09 114.223 68.535 114.254 67.84 114.359 c 68.086 113.805 68.223
 113.523 68.293 111.578 c 68.363 109.668 68.504 100.285 68.188 98.062 c 
68.016 96.703 67.664 96.395 67.285 96.047 c 70.102 95.906 71.004 95.453 
71.871 95.004 c 71.871 98.688 l 72.289 97.609 73.156 95.211 76.633 95.211
 c 80.977 95.211 81.012 98.371 81.047 100.457 c 81.047 110.918 l f
0.843137 0.027451 0.317647 rg
50.195 90.121 m 47.316 92.996 l 44.438 90.121 l 47.316 87.242 l 50.195 
90.121 l f
0.941176 0.505882 0.0980392 rg
19.305 128.395 m 19.027 128.352 18.801 128.332 18.633 128.332 c 18.465 
128.332 18.242 128.352 17.961 128.395 c 17.941 128.234 17.93 127.785 17.93
 127.051 c 17.785 127.469 17.535 127.801 17.188 128.047 c 16.836 128.293
 16.441 128.414 16 128.414 c 15.48 128.414 15.066 128.25 14.75 127.914 c
 14.434 127.578 14.277 127.148 14.277 126.625 c 14.277 125.34 15.289 124.699
 17.312 124.699 c 17.48 124.699 17.668 124.699 17.879 124.699 c 17.879 124.43
 l 17.879 123.531 17.512 123.082 16.777 123.082 c 16.418 123.082 16.059 
123.164 15.699 123.328 c 15.34 123.492 15.055 123.711 14.844 123.984 c 14.781
 123.684 14.664 123.375 14.496 123.062 c 15.406 122.656 16.238 122.453 16.996
 122.453 c 17.66 122.453 18.152 122.598 18.473 122.887 c 18.789 123.18 18.949
 123.648 18.949 124.301 c 18.949 126.945 l 18.949 127.309 18.965 127.562
 18.992 127.703 c 19.035 127.945 19.141 128.18 19.305 128.395 c h
17.879 125.34 m 17.633 125.305 17.391 125.289 17.145 125.289 c 15.988 125.289
 15.41 125.734 15.41 126.625 c 15.41 126.91 15.496 127.145 15.668 127.324
 c 15.84 127.508 16.07 127.598 16.355 127.598 c 16.742 127.598 17.07 127.449
 17.344 127.148 c 17.559 126.91 17.707 126.629 17.785 126.301 c 17.832 126.094
 17.863 125.773 17.879 125.34 c h
17.879 125.34 m f
24.41 126.641 m 24.41 127.824 23.641 128.414 22.098 128.414 c 21.602 128.414
 21.066 128.34 20.492 128.184 c 20.59 127.855 20.676 127.477 20.746 127.051
 c 21.117 127.465 21.629 127.668 22.277 127.668 c 23.035 127.668 23.41 127.387
 23.41 126.82 c 23.41 126.461 23.176 126.184 22.699 125.992 c 22.266 125.809
 21.828 125.629 21.387 125.453 c 20.91 125.16 20.672 124.719 20.672 124.133
 c 20.672 123.527 20.918 123.086 21.406 122.797 c 21.797 122.559 22.316 
122.441 22.961 122.441 c 23.457 122.441 23.914 122.527 24.324 122.703 c 
24.184 123.012 24.074 123.328 23.988 123.66 c 23.723 123.293 23.324 123.113
 22.793 123.113 c 22.504 123.113 22.258 123.176 22.047 123.301 c 21.801 
123.449 21.68 123.66 21.68 123.93 c 21.68 124.316 21.914 124.613 22.383 
124.824 c 22.824 125.012 23.266 125.199 23.707 125.379 c 24.176 125.668 
24.41 126.09 24.41 126.641 c h
24.41 126.641 m f
28.461 127.492 m 28.398 127.785 28.363 128.074 28.359 128.352 c 28.062 
128.379 27.852 128.395 27.719 128.395 c 26.715 128.395 26.215 127.977 26.215
 127.133 c 26.215 127.102 26.23 125.969 26.258 123.742 c 26.07 123.742 25.793
 123.754 25.43 123.777 c 25.441 123.621 25.449 123.496 25.449 123.402 c 
25.449 123.309 25.441 123.184 25.43 123.02 c 25.668 123.047 25.949 123.062
 26.277 123.062 c 26.277 121.992 l 26.277 121.695 26.23 121.449 26.133 121.246
 c 26.547 121.188 26.961 121.078 27.383 120.91 c 27.305 121.223 27.266 121.613
 27.266 122.074 c 27.266 123.062 l 27.508 123.055 27.863 123.039 28.34 123.02
 c 28.316 123.293 28.305 123.441 28.305 123.461 c 28.305 123.566 28.316 
123.668 28.34 123.777 c 28.098 123.77 27.742 123.758 27.266 123.742 c 27.266
 126.746 l 27.266 127.312 27.496 127.598 27.961 127.598 c 28.113 127.598
 28.281 127.562 28.461 127.492 c h
28.461 127.492 m f
32.578 122.453 m 32.461 122.773 32.383 123.129 32.348 123.512 c 32.242 
123.484 32.148 123.469 32.062 123.469 c 31.652 123.469 31.309 123.664 31.035
 124.047 c 30.781 124.406 30.656 124.957 30.656 125.707 c 30.656 127 l 30.656
 127.516 30.711 127.984 30.816 128.395 c 30.5 128.348 30.281 128.32 30.164
 128.32 c 30.051 128.32 29.824 128.348 29.48 128.395 c 29.578 128.023 29.629
 127.523 29.629 126.895 c 29.629 124.238 l 29.629 123.504 29.496 122.977
 29.23 122.66 c 29.742 122.641 30.23 122.543 30.699 122.367 c 30.672 122.793
 30.656 123.086 30.656 123.238 c 30.656 123.934 l 31.086 122.996 31.727 
122.5 32.578 122.453 c h
32.578 122.453 m f
38.699 125.383 m 38.699 126.301 38.477 127.027 38.027 127.566 c 37.551 
128.148 36.863 128.438 35.961 128.438 c 35.051 128.438 34.352 128.168 33.859
 127.629 c 33.391 127.113 33.156 126.395 33.156 125.477 c 33.156 124.555
 33.383 123.82 33.84 123.281 c 34.324 122.715 35.02 122.43 35.93 122.43 
c 36.816 122.43 37.508 122.703 37.996 123.25 c 38.465 123.777 38.699 124.484
 38.699 125.383 c h
37.586 125.445 m 37.586 123.883 37.055 123.102 35.992 123.102 c 34.828 
123.102 34.246 123.883 34.246 125.445 c 34.246 127 34.816 127.777 35.949
 127.777 c 37.039 127.777 37.586 127 37.586 125.445 c h
37.586 125.445 m f
45.055 128.395 m 44.715 128.359 44.488 128.344 44.371 128.344 c 44.266 
128.344 44.027 128.359 43.656 128.395 c 43.762 127.988 43.812 127.457 43.812
 126.801 c 43.812 124.488 l 43.812 124.07 43.746 123.77 43.613 123.586 c
 43.453 123.363 43.172 123.25 42.773 123.25 c 42.082 123.25 41.613 123.516
 41.367 124.047 c 41.215 124.398 41.137 124.969 41.137 125.758 c 41.137 
126.914 l 41.137 127.574 41.191 128.066 41.305 128.395 c 41.023 128.359 
40.805 128.344 40.641 128.344 c 40.473 128.344 40.254 128.359 39.98 128.395
 c 40.074 128.016 40.117 127.523 40.117 126.914 c 40.117 124.879 l 40.117
 124.297 40.102 123.902 40.074 123.691 c 40.02 123.18 39.883 122.836 39.664
 122.66 c 40.121 122.66 40.621 122.559 41.168 122.355 c 41.148 122.52 41.137
 122.711 41.137 122.934 c 41.137 123.734 l 41.371 123.266 41.645 122.934
 41.969 122.734 c 42.293 122.539 42.719 122.441 43.246 122.441 c 43.945 
122.441 44.406 122.652 44.633 123.07 c 44.785 123.367 44.863 123.891 44.863
 124.648 c 44.863 126.938 l 44.863 127.629 44.926 128.117 45.055 128.395
 c h
45.055 128.395 m f
51.805 125.383 m 51.805 126.301 51.578 127.027 51.133 127.566 c 50.656 
128.148 49.965 128.438 49.062 128.438 c 48.152 128.438 47.453 128.168 46.961
 127.629 c 46.492 127.113 46.258 126.395 46.258 125.477 c 46.258 124.555
 46.488 123.82 46.941 123.281 c 47.426 122.715 48.121 122.43 49.031 122.43
 c 49.922 122.43 50.609 122.703 51.098 123.25 c 51.57 123.777 51.805 124.484
 51.805 125.383 c h
50.691 125.445 m 50.691 123.883 50.16 123.102 49.094 123.102 c 47.934 123.102
 47.352 123.883 47.352 125.445 c 47.352 127 47.918 127.777 49.055 127.777
 c 50.145 127.777 50.691 127 50.691 125.445 c h
50.691 125.445 m f
61.223 128.383 m 60.863 128.355 60.617 128.344 60.477 128.344 c 60.324 
128.344 60.105 128.355 59.828 128.383 c 59.953 127.941 60.016 127.445 60.016
 126.895 c 60.016 124.824 l 60.016 124.309 59.965 123.945 59.871 123.742
 c 59.715 123.43 59.41 123.273 58.957 123.273 c 58.082 123.273 57.645 123.816
 57.645 124.906 c 57.645 126.887 l 57.645 127.523 57.707 128.023 57.844 
128.387 c 57.52 128.355 57.277 128.344 57.117 128.344 c 56.941 128.344 56.723
 128.355 56.457 128.387 c 56.566 128.086 56.625 127.656 56.625 127.098 c
 56.625 124.613 l 56.625 124.172 56.578 123.863 56.488 123.68 c 56.348 123.406
 56.082 123.273 55.691 123.273 c 55.164 123.273 54.777 123.512 54.535 123.996
 c 54.348 124.367 54.254 124.844 54.254 125.426 c 54.254 126.914 l 54.254
 127.473 54.309 127.965 54.418 128.383 c 54.086 128.355 53.863 128.344 53.758
 128.344 c 53.645 128.344 53.422 128.355 53.086 128.383 c 53.184 128.008
 53.234 127.508 53.234 126.895 c 53.234 124.562 l 53.234 123.59 53.082 122.953
 52.781 122.652 c 53.375 122.652 53.879 122.555 54.281 122.355 c 54.262 
122.953 54.254 123.402 54.254 123.711 c 54.715 122.867 55.34 122.441 56.133
 122.441 c 56.504 122.441 56.824 122.539 57.098 122.738 c 57.367 122.934
 57.527 123.211 57.586 123.566 c 57.957 122.816 58.578 122.441 59.445 122.441
 c 60.176 122.441 60.645 122.688 60.855 123.176 c 60.973 123.457 61.035 
124.02 61.035 124.867 c 61.035 124.984 61.035 125.211 61.035 125.543 c 61.035
 125.879 61.035 126.141 61.035 126.336 c 61.035 127.262 61.098 127.945 61.223
 128.383 c h
61.223 128.383 m f
67.734 122.496 m 67.488 122.906 67.227 123.531 66.945 124.363 c 65.52 128.586
 l 65.258 129.355 64.977 129.898 64.668 130.211 c 64.27 130.633 63.707 130.844
 62.988 130.844 c 62.891 130.844 62.754 130.836 62.578 130.82 c 62.723 130.457
 62.82 130.074 62.863 129.676 c 62.992 129.809 63.156 129.875 63.344 129.875
 c 63.723 129.875 64.039 129.703 64.289 129.363 c 64.414 129.188 64.586 
128.848 64.793 128.344 c 64.562 128.344 64.359 128.355 64.184 128.375 c 
63.352 125.336 62.633 123.375 62.02 122.496 c 62.273 122.523 62.531 122.539
 62.801 122.539 c 63.016 122.539 63.312 122.523 63.691 122.496 c 63.664 
122.594 63.648 122.703 63.648 122.832 c 63.648 123.223 63.797 123.867 64.098
 124.77 c 65.066 127.672 l 65.086 127.523 65.184 127.176 65.359 126.621 
c 65.562 125.984 65.766 125.352 65.969 124.723 c 66.234 123.84 66.367 123.215
 66.367 122.852 c 66.367 122.734 66.348 122.613 66.305 122.496 c 66.613 
122.523 66.855 122.539 67.031 122.539 c 67.207 122.535 67.438 122.523 67.734
 122.496 c h
67.734 122.496 m f
Q Q
showpage
%%Trailer
end
%%EOF
