%!PS-Adobe-3.0 EPSF-3.0
%%Creator: cairo 1.15.10 (http://cairographics.org)
%%CreationDate: Fri Sep  7 10:04:16 2018
%%Pages: 1
%%DocumentData: Clean7Bit
%%LanguageLevel: 2
%%BoundingBox: 0 0 520 500
%%EndComments
%%BeginProlog
50 dict begin
/q { gsave } bind def
/Q { grestore } bind def
/cm { 6 array astore concat } bind def
/w { setlinewidth } bind def
/J { setlinecap } bind def
/j { setlinejoin } bind def
/M { setmiterlimit } bind def
/d { setdash } bind def
/m { moveto } bind def
/l { lineto } bind def
/c { curveto } bind def
/h { closepath } bind def
/re { exch dup neg 3 1 roll 5 3 roll moveto 0 rlineto
      0 exch rlineto 0 rlineto closepath } bind def
/S { stroke } bind def
/f { fill } bind def
/f* { eofill } bind def
/n { newpath } bind def
/W { clip } bind def
/W* { eoclip } bind def
/BT { } bind def
/ET { } bind def
/BDC { mark 3 1 roll /BDC pdfmark } bind def
/EMC { mark /EMC pdfmark } bind def
/cairo_store_point { /cairo_point_y exch def /cairo_point_x exch def } def
/Tj { show currentpoint cairo_store_point } bind def
/TJ {
  {
    dup
    type /stringtype eq
    { show } { -0.001 mul 0 cairo_font_matrix dtransform rmoveto } ifelse
  } forall
  currentpoint cairo_store_point
} bind def
/cairo_selectfont { cairo_font_matrix aload pop pop pop 0 0 6 array astore
    cairo_font exch selectfont cairo_point_x cairo_point_y moveto } bind def
/Tf { pop /cairo_font exch def /cairo_font_matrix where
      { pop cairo_selectfont } if } bind def
/Td { matrix translate cairo_font_matrix matrix concatmatrix dup
      /cairo_font_matrix exch def dup 4 get exch 5 get cairo_store_point
      /cairo_font where { pop cairo_selectfont } if } bind def
/Tm { 2 copy 8 2 roll 6 array astore /cairo_font_matrix exch def
      cairo_store_point /cairo_font where { pop cairo_selectfont } if } bind def
/g { setgray } bind def
/rg { setrgbcolor } bind def
/d1 { setcachedevice } bind def
/cairo_data_source {
  CairoDataIndex CairoData length lt
    { CairoData CairoDataIndex get /CairoDataIndex CairoDataIndex 1 add def }
    { () } ifelse
} def
/cairo_flush_ascii85_file { cairo_ascii85_file status { cairo_ascii85_file flushfile } if } def
/cairo_image { image cairo_flush_ascii85_file } def
/cairo_imagemask { imagemask cairo_flush_ascii85_file } def
%%EndProlog
%%BeginSetup
%%EndSetup
%%Page: 1 1
%%BeginPageSetup
%%PageBoundingBox: 0 0 520 500
%%EndPageSetup
q 0 0 520 500 rectclip
1 0 0 -1 0 500 cm q
1 0.6 0.0509804 rg
76.379 497.715 m 76.031 496.324 76.801 493.293 78.352 489.965 c 79.75 486.961
 80.898 483.734 80.906 482.797 c 80.914 480.844 86.352 467.77 91.422 457.5
 c 95.758 448.711 101.012 436.312 103.707 428.5 c 107.652 417.062 116.086
 385.117 117.965 374.5 c 119.77 364.293 120.184 362.477 120.926 361.5 c 
121.34 360.949 121.984 358.926 122.355 357 c 122.723 355.074 124.102 349.676
 125.422 345 c 126.738 340.324 129.027 331.324 130.508 325 c 131.988 318.676
 134.426 309.898 135.926 305.5 c 138.754 297.207 139.633 288.055 141.547
 247 c 141.918 239.023 142.34 230.477 142.488 228 c 142.758 223.441 145.062
 210.887 146.863 204.168 c 147.406 202.152 148.098 194.199 148.402 186.5
 c 148.711 178.801 149.402 168.898 149.945 164.5 c 150.488 160.102 151.109
 138.5 151.328 116.5 c 151.582 90.82 152.203 72.922 153.066 66.5 c 153.82
 60.914 154.383 48.336 154.34 38 c 154.27 19.961 154.191 19.277 151.152 
10.555 c 149.441 5.633 148.262 1.246 148.535 0.805 c 148.809 0.363 153.703
 0 159.41 0 c 169.785 0 l 172.027 3.988 l 173.262 6.184 177.809 10.941 182.133
 14.562 c 186.457 18.18 192.254 24.25 195.016 28.047 c 197.777 31.844 201.891
 36.535 204.152 38.469 c 206.41 40.406 210.609 44.934 213.477 48.531 c 217.918
 54.109 225.586 62.398 231.477 68 c 235.211 71.551 254.902 108.633 254.922
 112.148 c 254.926 112.891 255.848 114.852 256.973 116.5 c 260.77 122.066
 265.102 131.297 268.438 140.922 c 275.93 162.543 282.438 179.582 283.707
 180.895 c 284.742 181.961 284.98 185.562 284.734 196.395 c 284.414 210.5
 l 280.602 217 l 269.418 236.055 266.238 240.043 253.973 250.406 c 248.684
 254.875 248.348 255 241.789 255 c 234.055 255 230.488 256.066 229.484 258.672
 c 228.988 259.973 229.453 260.926 231.098 261.973 c 236.199 265.219 260.918
 292.43 265.863 300.25 c 267.516 302.863 269.32 305 269.867 305 c 271.648
 305 273.914 310.793 273.914 315.344 c 273.914 324.324 249.195 367.996 240.852
 373.766 c 238.715 375.242 236.852 375.805 235.496 375.383 c 234.352 375.027
 230.234 371.422 226.348 367.367 c 222.461 363.316 218.824 360 218.27 360
 c 217.715 360 216.172 358.816 214.84 357.367 c 213.504 355.922 209.715 
352.469 206.414 349.699 c 200.414 344.66 l 199.625 357.078 l 199.191 363.91
 198.695 376.699 198.523 385.5 c 198.227 400.633 198.062 401.797 195.461
 407 c 192.242 413.441 185.918 423.176 184.254 424.25 c 183.617 424.66 180.055
 428.711 176.336 433.25 c 172.621 437.785 168.715 442.344 167.656 443.375
 c 166.594 444.406 164.223 447.605 162.379 450.488 c 160.535 453.367 155.266
 459.5 150.664 464.113 c 146.066 468.727 141.297 474.156 140.07 476.18 c
 136.734 481.68 131.863 485.492 121.105 491.023 c 115.777 493.77 109.848
 496.91 107.93 498.004 c 104.914 499.73 102.602 500 90.699 500 c 77.215 
500 76.941 499.957 76.379 497.715 c h
218.848 191.625 m 219.711 190.043 221.426 187.504 222.664 185.98 c 224.832
 183.312 224.914 182.477 224.914 162.863 c 224.914 142.516 l 221.555 137.508
 l 219.703 134.754 216.082 128.562 213.5 123.75 c 210.07 117.352 208.285
 115 206.863 115 c 204.961 115 204.914 116.07 204.914 160.098 c 204.914 
205.199 l 211.098 199.848 l 214.5 196.906 217.988 193.207 218.848 191.625
 c h
513.133 467.391 m 507.289 461.25 499.691 454.672 489.914 447.285 c 484.883
 443.488 473.562 433.906 466.602 427.562 c 465.055 426.152 463.547 425 463.246
 425 c 462.949 425 460.168 423.172 457.062 420.941 c 440.359 408.934 424.301
 399.203 406.809 390.488 c 395.203 384.707 l 394.547 373.102 l 393.715 358.453
 390.414 342.301 387.621 339.25 c 384.59 335.934 379.992 336.266 376.352
 340.066 c 373.469 343.074 373.414 343.328 373.414 354.062 c 373.414 364.438
 373.309 364.996 371.355 365 c 366.812 365 339.156 352.16 327.914 344.832
 c 324.34 342.5 319.594 339.895 317.367 339.047 c 313.066 337.402 305.648
 333.105 295.512 326.395 c 292.105 324.137 287.684 321.75 285.695 321.094
 c 280.789 319.473 279.297 317.566 280.707 314.715 c 282.375 311.34 282.766
 307.82 286.371 263.91 c 287.121 254.789 288.652 242.863 289.773 237.41 
c 294.391 215.004 294.848 203.969 291.898 185.875 c 289.547 171.445 289.523
 171.34 282.938 150.715 c 278.516 136.855 276.195 131.523 267.504 115.246
 c 265.785 112.035 265.738 111.402 267.039 109.082 c 269.371 104.934 272.984
 105.605 275.414 110.645 c 276.516 112.926 280.402 117.703 284.055 121.266
 c 287.711 124.828 291.523 129.039 292.527 130.621 c 295.258 134.918 304.328
 146.219 306.859 148.477 c 308.078 149.566 313.512 156.316 318.938 163.477
 c 328.871 176.598 339.75 188.297 360.914 208.625 c 367.238 214.699 373.805
 221.43 375.504 223.586 c 384.082 234.457 397.512 252.746 404.449 263 c 
412.035 274.215 417.699 281.992 419.016 283 c 421.207 284.676 433.613 305.715
 439.656 318 c 443.578 325.977 448.094 334.523 449.695 337 c 458.605 350.777
 464.004 359.953 465.281 363.5 c 466.074 365.699 470.105 374.25 474.242 
382.5 c 483.918 401.809 493.914 422.773 493.914 423.762 c 493.914 424.188
 494.973 426.102 496.266 428.02 c 497.559 429.934 501.215 436.449 504.391
 442.5 c 507.566 448.551 512.406 457.691 515.145 462.812 c 517.879 467.938
 519.836 472.414 519.484 472.762 c 519.137 473.109 516.277 470.691 513.133
 467.391 c h
390.969 303.895 m 392.449 301.133 391.355 295.543 388.516 291.363 c 387.281
 289.547 382.109 283.207 377.027 277.277 c 371.941 271.352 364.773 262.465
 361.098 257.531 c 353.977 247.973 348.785 244.047 343.238 244.016 c 340.984
 244.004 339.457 244.766 337.988 246.637 c 335.352 249.984 335.363 252.195
 338.035 254.594 c 339.199 255.645 342.066 259.426 344.406 263 c 346.746
 266.574 350.637 271.75 353.055 274.5 c 355.477 277.25 358.754 281.43 360.344
 283.785 c 366.215 292.488 383.02 305.914 388.129 305.977 c 389.07 305.988
 390.352 305.051 390.969 303.895 c h
123.113 288.801 m 122.453 288.141 121.914 286.656 121.914 285.5 c 121.914
 283.102 115.531 276.051 111.836 274.371 c 108.734 272.961 94.93 260.152
 94.867 258.629 c 94.801 257.027 82.414 248.211 76.094 245.266 c 73.164 
243.902 70.527 242.16 70.234 241.395 c 69.941 240.629 69.203 240 68.594 
240 c 67.984 240 63.816 238.207 59.332 236.016 c 54.848 233.828 44.934 229.746
 37.297 226.953 c 23.789 222.008 23.16 221.875 14.07 222.176 c 4.914 222.48
 4.684 222.43 2.32 219.688 c -0.41 216.512 -0.699 214.223 1.289 211.5 c 
2.418 209.957 4.605 209.484 13.539 208.855 c 19.52 208.434 26.574 207.629
 29.215 207.066 c 34.844 205.863 58.352 194.703 68.414 188.453 c 72.266 
186.062 77.512 183.18 80.07 182.047 c 82.633 180.914 87.582 178.262 91.07
 176.152 c 94.559 174.039 103.039 169.359 109.914 165.75 c 124.379 158.16
 133.305 153.004 137.074 150.07 c 142.547 145.805 144.531 147.699 145.473
 158.094 c 146.02 164.117 145.824 166.27 144.508 168.816 c 141.277 175.07
 138.238 193.621 135.961 221 c 134.125 243.035 132.961 251.949 131.445 255.586
 c 130.316 258.285 129.914 262.961 129.914 273.422 c 129.914 287.887 129.402
 290 125.914 290 c 125.035 290 123.773 289.461 123.113 288.801 c h
434.828 284.293 m 434.016 283.309 431.461 279.574 429.148 276 c 426.84 
272.426 422.129 265.145 418.684 259.816 c 415.234 254.492 409.812 245.715
 406.633 240.316 c 396.199 222.598 390.016 215.219 375.914 203.668 c 369.039
 198.035 324.453 153.496 318.688 146.5 c 312.75 139.293 305.797 128.656 
305.254 125.949 c 304.387 121.605 306.266 120 312.223 120 c 317.875 120 
325.348 123.074 326.945 126.059 c 327.496 127.086 330.074 129.371 332.68
 131.145 c 335.285 132.914 339.738 136.754 342.578 139.68 c 347.742 145 
l 387.078 144.996 l 425.562 144.992 426.488 144.945 429.914 142.844 c 436.926
 138.539 476.562 118.816 481.914 116.969 c 490.836 113.891 496.758 112.844
 498.875 113.98 c 501.434 115.348 503.227 121.051 502.059 124.105 c 500.82
 127.344 498.508 129.23 491.406 132.777 c 488.105 134.43 482.703 137.801
 479.406 140.262 c 476.109 142.727 470.793 146.215 467.586 148.012 c 464.379
 149.809 461.234 152.117 460.594 153.141 c 459.504 154.883 457.602 155 429.922
 155.016 c 400.414 155.031 l 394.664 163.82 l 391.5 168.652 388.914 173.148
 388.914 173.805 c 388.914 174.703 395.863 175 416.914 175 c 444.914 175
 l 444.914 195 l 403.816 195 l 406.695 199.25 l 408.277 201.586 410.551 
205.523 411.742 208 c 413.895 212.465 426.461 229.125 429.844 232 c 430.816
 232.824 433.512 235.613 435.84 238.199 c 440.074 242.898 l 440.176 264.199
 l 440.273 284.723 440.203 285.512 438.289 285.793 c 437.199 285.957 435.641
 285.281 434.828 284.293 c h
434.828 284.293 m f
Q Q
showpage
%%Trailer
end
%%EOF
