%!PS-Adobe-3.0 EPSF-3.0
%%Creator: cairo 1.15.12 (http://cairographics.org)
%%CreationDate: Tue Oct 23 08:46:10 2018
%%Pages: 1
%%DocumentData: Clean7Bit
%%LanguageLevel: 2
%%BoundingBox: 0 0 33 39
%%EndComments
%%BeginProlog
50 dict begin
/q { gsave } bind def
/Q { grestore } bind def
/cm { 6 array astore concat } bind def
/w { setlinewidth } bind def
/J { setlinecap } bind def
/j { setlinejoin } bind def
/M { setmiterlimit } bind def
/d { setdash } bind def
/m { moveto } bind def
/l { lineto } bind def
/c { curveto } bind def
/h { closepath } bind def
/re { exch dup neg 3 1 roll 5 3 roll moveto 0 rlineto
      0 exch rlineto 0 rlineto closepath } bind def
/S { stroke } bind def
/f { fill } bind def
/f* { eofill } bind def
/n { newpath } bind def
/W { clip } bind def
/W* { eoclip } bind def
/BT { } bind def
/ET { } bind def
/BDC { mark 3 1 roll /BDC pdfmark } bind def
/EMC { mark /EMC pdfmark } bind def
/cairo_store_point { /cairo_point_y exch def /cairo_point_x exch def } def
/Tj { show currentpoint cairo_store_point } bind def
/TJ {
  {
    dup
    type /stringtype eq
    { show } { -0.001 mul 0 cairo_font_matrix dtransform rmoveto } ifelse
  } forall
  currentpoint cairo_store_point
} bind def
/cairo_selectfont { cairo_font_matrix aload pop pop pop 0 0 6 array astore
    cairo_font exch selectfont cairo_point_x cairo_point_y moveto } bind def
/Tf { pop /cairo_font exch def /cairo_font_matrix where
      { pop cairo_selectfont } if } bind def
/Td { matrix translate cairo_font_matrix matrix concatmatrix dup
      /cairo_font_matrix exch def dup 4 get exch 5 get cairo_store_point
      /cairo_font where { pop cairo_selectfont } if } bind def
/Tm { 2 copy 8 2 roll 6 array astore /cairo_font_matrix exch def
      cairo_store_point /cairo_font where { pop cairo_selectfont } if } bind def
/g { setgray } bind def
/rg { setrgbcolor } bind def
/d1 { setcachedevice } bind def
/cairo_data_source {
  CairoDataIndex CairoData length lt
    { CairoData CairoDataIndex get /CairoDataIndex CairoDataIndex 1 add def }
    { () } ifelse
} def
/cairo_flush_ascii85_file { cairo_ascii85_file status { cairo_ascii85_file flushfile } if } def
/cairo_image { image cairo_flush_ascii85_file } def
/cairo_imagemask { imagemask cairo_flush_ascii85_file } def
%%EndProlog
%%BeginSetup
%%EndSetup
%%Page: 1 1
%%BeginPageSetup
%%PageBoundingBox: 0 0 33 39
%%EndPageSetup
q 0 0 33 39 rectclip
1 0 0 -1 0 39 cm q
0.305882 g
1.715 20.125 m 1.715 21.297 1.621 21.676 1.379 21.957 c 1.113 22.195 0.766
 22.332 0.406 22.328 c 0.5 22.996 l 1.055 23.004 1.598 22.809 2.02 22.445
 c 2.25 22.168 2.418 21.848 2.52 21.5 c 2.621 21.156 2.648 20.797 2.609 
20.441 c 2.609 16.02 l 1.715 16.02 l h
1.715 20.125 m f
8.387 19.602 m 8.387 20.102 8.387 20.547 8.426 20.934 c 7.633 20.934 l 
7.578 20.141 l 7.414 20.422 7.176 20.652 6.891 20.812 c 6.605 20.973 6.281
 21.055 5.957 21.047 c 5.18 21.047 4.262 20.629 4.262 18.91 c 4.262 16.062
 l 5.156 16.062 l 5.156 18.73 l 5.156 19.66 5.441 20.281 6.25 20.281 c 6.418
 20.281 6.582 20.25 6.734 20.188 c 6.891 20.125 7.027 20.031 7.145 19.914
 c 7.266 19.797 7.355 19.656 7.418 19.504 c 7.48 19.352 7.512 19.184 7.512
 19.02 c 7.512 16.027 l 8.406 16.027 l 8.406 19.574 l h
8.387 19.602 m f
10.082 17.648 m 10.082 17.027 10.082 16.52 10.043 16.059 c 10.844 16.059
 l 10.883 16.895 l 11.062 16.594 11.32 16.348 11.629 16.18 c 11.934 16.012
 12.281 15.934 12.633 15.945 c 13.82 15.945 14.715 16.941 14.715 18.426 
c 14.715 20.172 13.641 21.043 12.48 21.043 c 12.184 21.055 11.887 20.992
 11.621 20.855 c 11.355 20.723 11.129 20.52 10.965 20.273 c 10.965 22.945
 l 10.082 22.945 l h
10.965 18.953 m 10.965 19.074 10.98 19.195 11.004 19.312 c 11.078 19.609
 11.254 19.871 11.492 20.059 c 11.734 20.246 12.035 20.348 12.34 20.348 
c 13.281 20.348 13.836 19.578 13.836 18.465 c 13.836 17.488 13.312 16.656
 12.371 16.656 c 12 16.684 11.652 16.852 11.391 17.121 c 11.133 17.391 10.98
 17.742 10.965 18.117 c h
10.965 18.953 m f
16.312 16.055 m 17.387 18.934 l 17.5 19.254 17.621 19.641 17.699 19.93 
c 17.793 19.637 17.895 19.262 18.012 18.914 c 18.988 16.055 l 19.93 16.055
 l 18.594 19.527 l 17.926 21.199 17.52 22.059 16.906 22.578 c 16.594 22.863
 16.219 23.059 15.809 23.152 c 15.59 22.406 l 15.875 22.312 16.141 22.164
 16.371 21.973 c 16.695 21.707 16.957 21.367 17.125 20.984 c 17.16 20.918
 17.188 20.844 17.199 20.77 c 17.191 20.688 17.172 20.609 17.141 20.535 
c 15.324 16.043 l 16.297 16.043 l h
16.312 16.055 m f
22.305 14.656 m 22.305 16.059 l 23.586 16.059 l 23.586 16.727 l 22.305 
16.727 l 22.305 19.355 l 22.305 19.957 22.48 20.305 22.973 20.305 c 23.148
 20.309 23.324 20.285 23.492 20.242 c 23.535 20.91 l 23.277 21 23.008 21.039
 22.738 21.031 c 22.559 21.043 22.383 21.016 22.215 20.949 c 22.047 20.887
 21.895 20.785 21.77 20.656 c 21.5 20.293 21.375 19.84 21.422 19.391 c 21.422
 16.719 l 20.664 16.719 l 20.664 16.051 l 21.438 16.051 l 21.438 14.863 
l h
22.305 14.656 m f
25.234 18.652 m 25.219 18.879 25.25 19.105 25.328 19.32 c 25.406 19.531
 25.531 19.727 25.691 19.887 c 25.852 20.047 26.043 20.172 26.258 20.25 
c 26.469 20.328 26.699 20.359 26.926 20.34 c 27.383 20.352 27.836 20.266
 28.262 20.086 c 28.414 20.754 l 27.895 20.969 27.34 21.07 26.777 21.055
 c 26.449 21.078 26.125 21.031 25.816 20.914 c 25.512 20.797 25.234 20.617
 25.004 20.383 c 24.773 20.148 24.598 19.867 24.488 19.562 c 24.375 19.254
 24.332 18.926 24.359 18.598 c 24.359 17.129 25.234 15.969 26.664 15.969
 c 28.266 15.969 28.668 17.371 28.668 18.266 c 28.676 18.402 28.676 18.539
 28.668 18.68 c 25.215 18.68 l h
27.852 17.984 m 27.879 17.805 27.867 17.625 27.816 17.449 c 27.766 17.277
 27.68 17.117 27.559 16.98 c 27.441 16.844 27.297 16.734 27.133 16.656 c
 26.969 16.582 26.793 16.543 26.609 16.543 c 26.242 16.566 25.898 16.73 
25.648 16.996 c 25.395 17.266 25.25 17.617 25.242 17.984 c h
27.852 17.984 m f
30.023 17.574 m 30.023 17 30.023 16.504 29.984 16.051 c 30.785 16.051 l
 30.785 17.008 l 30.828 17.008 l 30.91 16.711 31.086 16.449 31.324 16.258
 c 31.562 16.066 31.855 15.957 32.16 15.938 c 32.246 15.926 32.332 15.926
 32.414 15.938 c 32.414 16.773 l 32.312 16.762 32.211 16.762 32.109 16.773
 c 31.805 16.785 31.516 16.906 31.297 17.117 c 31.078 17.324 30.941 17.605
 30.914 17.906 c 30.887 18.043 30.875 18.184 30.875 18.32 c 30.875 20.918
 l 29.992 20.918 l 29.992 17.582 l h
30.023 17.574 m f
0.462745 0.462745 0.466667 rg
29.633 2.645 m 29.66 3.094 29.555 3.539 29.328 3.926 c 29.098 4.316 28.762
 4.625 28.355 4.82 c 27.953 5.016 27.5 5.086 27.055 5.023 c 26.609 4.961
 26.191 4.766 25.859 4.465 c 25.523 4.164 25.289 3.77 25.18 3.336 c 25.07
 2.898 25.09 2.441 25.242 2.016 c 25.395 1.594 25.668 1.227 26.031 0.961
 c 26.395 0.691 26.828 0.539 27.277 0.52 c 27.57 0.504 27.863 0.547 28.145
 0.645 c 28.422 0.742 28.676 0.895 28.895 1.094 c 29.113 1.289 29.293 1.527
 29.418 1.793 c 29.547 2.062 29.617 2.352 29.633 2.645 c h
29.633 2.645 m f
0.952941 0.466667 0.14902 rg
16.43 28.793 m 10.422 28.793 5.137 26.637 2.406 23.453 c 3.469 26.316 5.379
 28.789 7.887 30.535 c 10.395 32.281 13.375 33.219 16.43 33.219 c 19.484
 33.219 22.465 32.281 24.973 30.535 c 27.48 28.789 29.391 26.316 30.453 
23.453 c 27.727 26.637 22.465 28.793 16.43 28.793 c h
16.43 28.793 m f
16.43 8.082 m 22.438 8.082 27.723 10.238 30.453 13.426 c 29.391 10.559 
27.48 8.086 24.973 6.34 c 22.465 4.598 19.484 3.66 16.43 3.66 c 13.375 3.66
 10.395 4.598 7.887 6.34 c 5.379 8.086 3.469 10.559 2.406 13.426 c 5.137
 10.234 10.395 8.082 16.43 8.082 c h
16.43 8.082 m f
0.619608 g
8.156 34.992 m 8.191 35.559 8.059 36.121 7.773 36.609 c 7.488 37.098 7.062
 37.492 6.551 37.738 c 6.043 37.984 5.473 38.074 4.91 37.992 c 4.352 37.914
 3.828 37.668 3.406 37.289 c 2.984 36.91 2.684 36.418 2.547 35.867 c 2.406
 35.32 2.438 34.742 2.629 34.207 c 2.816 33.676 3.164 33.211 3.617 32.875
 c 4.074 32.539 4.621 32.348 5.184 32.32 c 5.555 32.301 5.926 32.355 6.277
 32.48 c 6.625 32.602 6.949 32.793 7.223 33.043 c 7.5 33.289 7.727 33.59
 7.883 33.926 c 8.043 34.258 8.137 34.621 8.156 34.992 c h
8.156 34.992 m f
0.380392 0.384314 0.384314 rg
3.09 7.355 m 2.766 7.367 2.449 7.277 2.172 7.105 c 1.898 6.934 1.68 6.688
 1.547 6.391 c 1.414 6.094 1.371 5.766 1.426 5.449 c 1.477 5.129 1.625 4.832
 1.844 4.594 c 2.066 4.355 2.352 4.191 2.668 4.117 c 2.98 4.043 3.312 4.062
 3.617 4.176 c 3.918 4.289 4.184 4.488 4.375 4.75 c 4.562 5.012 4.672 5.324
 4.688 5.648 c 4.699 6.086 4.539 6.512 4.238 6.832 c 3.941 7.152 3.527 7.34
 3.09 7.355 c h
3.09 7.355 m f
Q Q
showpage
%%Trailer
end
%%EOF
